var bin = "0111111010110101001000101100100010011000111111010001110100000011";
var newbin = "";
for(var i=0;i<bin.length;i++){
	newbin += bin[i];
	if((i+1)%4 == 0) newbin += "\t";
}
console.log(newbin);


001001111010000101101001111001011000110111011010

var bin = "001001111010000101101001111001011000110111011010";
var newbin = "";
for(var i=0;i<bin.length;i++){
	newbin += bin[i];
	if((i+1)%6 == 0) newbin += "\t";
}
console.log(newbin);

001001	111010	000101	101001	111001	011000	110111	011010



//xor
var ia = "10011000111111010001110100000011";
var ib = "10101001000100011001110111100101";
var oa = "";
for(var i=0;i<ia.length;i++){
	oa += (ia[i] != ib[i]) ? "1" : "0";
	if((i+1)%4==0) oa += "\t";
}
console.log(oa)



function xor(a,b){
	if(isNaN(a) || isNaN(a)) return "";
	return (a==b) ? 1 : 0;
}

var x = "110011	110001	011111	111010	100011	111010	100000	000111";
var y = "001001	111010	000101	101001	111001	011000	110111	011010";
var z = "";

for(var i=0;i<x.length;i++){
	z += xor(x[i],y[i]);
}

var zz = "";
for(var i=0;i<z.length;i++){
	zz+= z[i];
	if((i+1)%6 == 0) zz += "\t";
}

console.log(zz);

======


var p = [999,
16,7,20,21,
29,12,28,17,
1,15,23,26,
5,18,31,10,
2,8,24,14,
32,27,3,9,
19,13,30,6,
22,11,4,25];

var input = "~01000000111011011011000011101101";
var out = "";
for(var i=1;i<p.length;i++){
	console.log(i + "---" + p[i] + "---" + input.charAt(p[i]));
	out += input.charAt(p[i]);
}
console.log(out);


1101	1000	1111	1001	0001	1010	0001	1001
1110	1111	0111	1011	1000	0101	0100	0100
0001	0010	0100	1111	0100	1101	1010	1100
0001	0110	0100	1110	0100	1100	1010	1100
1010	1001	0001	0001	1001	1101	1110	0101


var p = [
40,8,48,16,56,24,64,32,
39,7,47,15,55,23,63,31,
38,6,46,14,54,22,62,30,
37,5,45,13,53,21,61,29,
36,4,44,12,52,20,60,28,
35,3,43,11,51,19,59,27,
34,2,42,10,50,18,58,26,
33,1,41,9,49,17,57,25
];

var input = "1111011111100110101110011111011100110001111011001000000011100110";
var output = "";
for(var i=0;i<p.length;i++){
	console.log(i + "---" + p[i] + "---" + input.charAt(p[i]));
	output += input[p[i]-1];
	if(i%4==3) output +="\t";
}
console.log(output);

1100	0101	0101	0011	0111	0011	0010	0100	1100	0101	1111	0111	0111	0011	0111	1111



==================

var p = [
40,8,48,16,56,24,64,32,
39,7,47,15,55,23,63,31,
38,6,46,14,54,22,62,30,
37,5,45,13,53,21,61,29,
36,4,44,12,52,20,60,28,
35,3,43,11,51,19,59,27,
34,2,42,10,50,18,58,26,
33,1,41,9,49,17,57,25
];
var input = "0011000111101100100000001110011001101000111110110110111001100100";
var output = "";

for(var i=0;i<input.length;i++){
	output += input[p[i]-1];
	if(i%4==3) output +="\t";
}
console.log(output);


